1.1/ISD/s2/simulation/qsim/DEF.msim.vcd
$comment
	File created using the following command:
		vcd file DEF.msim.vcd -direction
$end
$date
	Mon Dec 18 17:04:31 2023
$end
$version
	Questa Intel Starter FPGA Edition Version 2021.2
$end
$timescale
	1ps
$end

$scope module def_vhd_vec_tst $end
$var wire 1 ! CLK $end
$var wire 1 " Q [2] $end
$var wire 1 # Q [1] $end
$var wire 1 $ Q [0] $end
$var wire 1 % RESET_H $end
$var wire 1 & Y $end

$scope module i1 $end
$var wire 1 ' gnd $end
$var wire 1 ( vcc $end
$var wire 1 ) unknown $end
$var wire 1 * devoe $end
$var wire 1 + devclrn $end
$var wire 1 , devpor $end
$var wire 1 - ww_devoe $end
$var wire 1 . ww_devclrn $end
$var wire 1 / ww_devpor $end
$var wire 1 0 ww_Y $end
$var wire 1 1 ww_Q [2] $end
$var wire 1 2 ww_Q [1] $end
$var wire 1 3 ww_Q [0] $end
$var wire 1 4 ww_CLK $end
$var wire 1 5 ww_RESET_H $end
$var wire 1 6 \Y~output_o\ $end
$var wire 1 7 \Q[2]~output_o\ $end
$var wire 1 8 \Q[1]~output_o\ $end
$var wire 1 9 \Q[0]~output_o\ $end
$var wire 1 : \CLK~input_o\ $end
$var wire 1 ; \RESET_H~input_o\ $end
$var wire 1 < \inst11~0_combout\ $end
$var wire 1 = \inst14~q\ $end
$var wire 1 > \inst10~0_combout\ $end
$var wire 1 ? \inst13~q\ $end
$var wire 1 @ \inst19~0_combout\ $end
$var wire 1 A \inst12~q\ $end
$var wire 1 B \inst23~0_combout\ $end
$var wire 1 C \inst15~combout\ $end
$var wire 1 D \inst16~combout\ $end
$var wire 1 E \inst17~0_combout\ $end
$upscope $end
$upscope $end
$enddefinitions $end
#0
$dumpvars
0!
0%
1&
0'
1(
x)
1*
1+
1,
1-
1.
1/
10
04
05
16
07
08
09
0:
0;
1<
0=
0>
0?
0@
0A
1B
0C
0D
0E
0"
0#
0$
01
02
03
$end
#10000
1!
14
1:
1=
#20000
0!
04
0:
#30000
1!
14
1:
#40000
0!
1%
04
15
1;
0:
0<
1>
1E
19
13
1$
#50000
1!
14
1:
0=
1?
1D
1<
0B
0E
09
06
18
03
00
12
0$
1#
0&
#60000
0!
04
0:
#70000
1!
14
1:
1=
0<
0>
1@
1E
19
13
1$
#80000
0!
04
0:
#90000
1!
14
1:
0=
0?
1A
1C
0D
0@
1B
0E
09
16
08
17
03
10
02
11
0$
0#
1"
1&
#100000
0!
0%
04
05
0;
0:
1<
0C
07
01
0"
#110000
1!
14
1:
1=
0A
#120000
0!
04
0:
#130000
1!
14
1:
#140000
0!
04
0:
#150000
1!
14
1:
#160000
0!
04
0:
#170000
1!
14
1:
#180000
0!
04
0:
#190000
1!
14
1:
#200000
0!
04
0:
#210000
1!
14
1:
#220000
0!
04
0:
#230000
1!
14
1:
#240000
0!
04
0:
#250000
1!
14
1:
#260000
0!
04
0:
#270000
1!
14
1:
#280000
0!
04
0:
#290000
1!
14
1:
#300000
0!
04
0:
#310000
1!
14
1:
#320000
0!
04
0:
#330000
1!
14
1:
#340000
0!
04
0:
#350000
1!
14
1:
#360000
0!
04
0:
#370000
1!
14
1:
#380000
0!
04
0:
#390000
1!
14
1:
#400000
0!
04
0:
#410000
1!
14
1:
#420000
0!
04
0:
#430000
1!
14
1:
#440000
0!
04
0:
#450000
1!
14
1:
#460000
0!
04
0:
#470000
1!
14
1:
#480000
0!
04
0:
#490000
1!
14
1:
#500000
0!
04
0:
#510000
1!
14
1:
#520000
0!
04
0:
#530000
1!
14
1:
#540000
0!
04
0:
#550000
1!
14
1:
#560000
0!
04
0:
#570000
1!
14
1:
#580000
0!
04
0:
#590000
1!
14
1:
#600000
0!
04
0:
#610000
1!
14
1:
#620000
0!
04
0:
#630000
1!
14
1:
#640000
0!
04
0:
#650000
1!
14
1:
#660000
0!
04
0:
#670000
1!
14
1:
#680000
0!
04
0:
#690000
1!
14
1:
#700000
0!
04
0:
#710000
1!
14
1:
#720000
0!
04
0:
#730000
1!
14
1:
#740000
0!
04
0:
#750000
1!
14
1:
#760000
0!
04
0:
#770000
1!
14
1:
#780000
0!
04
0:
#790000
1!
14
1:
#800000
0!
04
0:
#810000
1!
14
1:
#820000
0!
04
0:
#830000
1!
14
1:
#840000
0!
04
0:
#850000
1!
14
1:
#860000
0!
04
0:
#870000
1!
14
1:
#880000
0!
04
0:
#890000
1!
14
1:
#900000
0!
04
0:
#910000
1!
14
1:
#920000
0!
04
0:
#930000
1!
14
1:
#940000
0!
04
0:
#950000
1!
14
1:
#960000
0!
04
0:
#970000
1!
14
1:
#980000
0!
04
0:
#990000
1!
14
1:
