1.1/ISD/S1/simulation/qsim/primeiro.msim.vcd
$comment
	File created using the following command:
		vcd file primeiro.msim.vcd -direction
$end
$date
	Mon Dec  4 16:32:46 2023
$end
$version
	Questa Intel Starter FPGA Edition Version 2021.2
$end
$timescale
	1ps
$end

$scope module terceiroex_vhd_vec_tst $end
$var wire 1 ! A $end
$var wire 1 " B $end
$var wire 1 # C $end
$var wire 1 $ D $end
$var wire 1 % Y $end

$scope module i1 $end
$var wire 1 & gnd $end
$var wire 1 ' vcc $end
$var wire 1 ( unknown $end
$var wire 1 ) devoe $end
$var wire 1 * devclrn $end
$var wire 1 + devpor $end
$var wire 1 , ww_devoe $end
$var wire 1 - ww_devclrn $end
$var wire 1 . ww_devpor $end
$var wire 1 / ww_Y $end
$var wire 1 0 ww_D $end
$var wire 1 1 ww_A $end
$var wire 1 2 ww_B $end
$var wire 1 3 ww_C $end
$var wire 1 4 \A~input_o\ $end
$var wire 1 5 \B~input_o\ $end
$var wire 1 6 \C~input_o\ $end
$var wire 1 7 \Y~output_o\ $end
$var wire 1 8 \D~input_o\ $end
$upscope $end
$upscope $end
$enddefinitions $end
#0
$dumpvars
0!
0"
0#
0$
0%
0&
1'
x(
1)
1*
1+
1,
1-
1.
0/
00
01
02
03
04
05
06
07
08
$end
#25000
1$
10
18
17
1/
1%
#50000
0$
1#
00
13
16
08
07
0/
0%
#75000
1$
10
18
17
1/
1%
#100000
0$
0#
1"
00
03
12
15
06
08
07
0/
0%
#125000
1$
10
18
17
1/
1%
#150000
0$
1#
00
13
16
08
07
0/
0%
#175000
1$
10
18
17
1/
1%
#200000
0$
0#
0"
1!
00
03
02
11
14
05
06
08
07
0/
0%
#225000
1$
10
18
17
1/
1%
#250000
0$
1#
00
13
16
08
07
0/
0%
#275000
1$
10
18
17
1/
1%
#300000
0$
0#
1"
00
03
12
15
06
08
07
0/
0%
#325000
1$
10
18
17
1/
1%
#350000
0$
1#
00
13
16
08
07
0/
0%
#375000
1$
10
18
17
1/
1%
#400000
0$
0#
0"
0!
00
03
02
01
04
05
06
08
07
0/
0%
#425000
1$
10
18
17
1/
1%
#450000
0$
1#
00
13
16
08
07
0/
0%
#475000
1$
10
18
17
1/
1%
#500000
0$
0#
1"
00
03
12
15
06
08
07
0/
0%
#525000
1$
10
18
17
1/
1%
#550000
0$
1#
00
13
16
08
07
0/
0%
#575000
1$
10
18
17
1/
1%
#600000
0$
0#
0"
1!
00
03
02
11
14
05
06
08
07
0/
0%
#625000
1$
10
18
17
1/
1%
#650000
0$
1#
00
13
16
08
07
0/
0%
#675000
1$
10
18
17
1/
1%
#700000
0$
0#
1"
00
03
12
15
06
08
07
0/
0%
#725000
1$
10
18
17
1/
1%
#750000
0$
1#
00
13
16
08
07
0/
0%
#775000
1$
10
18
17
1/
1%
#800000
0$
0#
0"
0!
00
03
02
01
04
05
06
08
07
0/
0%
#825000
1$
10
18
17
1/
1%
#850000
0$
1#
00
13
16
08
07
0/
0%
#875000
1$
10
18
17
1/
1%
#900000
0$
0#
1"
00
03
12
15
06
08
07
0/
0%
#925000
1$
10
18
17
1/
1%
#950000
0$
1#
00
13
16
08
07
0/
0%
#975000
1$
10
18
17
1/
1%
