1.2/LSD/aula4/simulation/qsim/FlipFlopD_Demo.msim.vcd
$comment
	File created using the following command:
		vcd file FlipFlopD_Demo.msim.vcd -direction
$end
$date
	Tue Mar 12 11:23:04 2024
$end
$version
	Questa Intel Starter FPGA Edition Version 2021.2
$end
$timescale
	1ps
$end

$scope module flipflopd_vhd_vec_tst $end
$var wire 1 ! clk $end
$var wire 1 " d $end
$var wire 1 # q $end

$scope module i1 $end
$var wire 1 $ gnd $end
$var wire 1 % vcc $end
$var wire 1 & unknown $end
$var wire 1 ' devoe $end
$var wire 1 ( devclrn $end
$var wire 1 ) devpor $end
$var wire 1 * ww_devoe $end
$var wire 1 + ww_devclrn $end
$var wire 1 , ww_devpor $end
$var wire 1 - ww_clk $end
$var wire 1 . ww_d $end
$var wire 1 / ww_q $end
$var wire 1 0 \q~output_o\ $end
$var wire 1 1 \clk~input_o\ $end
$var wire 1 2 \d~input_o\ $end
$var wire 1 3 \q~reg0_q\ $end
$upscope $end
$upscope $end
$enddefinitions $end
#0
$dumpvars
0!
0"
0#
0$
1%
x&
1'
1(
1)
1*
1+
1,
0-
0.
0/
00
01
02
03
$end
#10000
1!
1-
11
#20000
0!
1"
0-
1.
12
01
#30000
1!
1-
11
13
10
1/
1#
#40000
0!
0-
01
#50000
1!
1-
11
#60000
0!
0-
01
#70000
1!
1-
11
#80000
0!
0-
01
#90000
1!
1-
11
#100000
0!
0-
01
#110000
1!
1-
11
#120000
0!
0-
01
#130000
1!
1-
11
#140000
0!
0-
01
#150000
1!
1-
11
#160000
0!
0-
01
#170000
1!
1-
11
#180000
0!
0-
01
#190000
1!
1-
11
#200000
0!
0-
01
#210000
1!
1-
11
#220000
0!
0"
0-
0.
02
01
#230000
1!
1-
11
03
00
0/
0#
#240000
0!
0-
01
#250000
1!
1-
11
#260000
0!
0-
01
#270000
1!
1-
11
#280000
0!
0-
01
#290000
1!
1-
11
#300000
0!
0-
01
#310000
1!
1-
11
#320000
0!
0-
01
#330000
1!
1-
11
#340000
0!
0-
01
#350000
1!
1-
11
#360000
0!
1"
0-
1.
12
01
#370000
1!
1-
11
13
10
1/
1#
#380000
0!
0-
01
#390000
1!
1-
11
#400000
0!
0-
01
#410000
1!
1-
11
#420000
0!
0-
01
#430000
1!
1-
11
#440000
0!
0-
01
#450000
1!
1-
11
#460000
0!
0-
01
#470000
1!
1-
11
#480000
0!
0-
01
#490000
1!
1-
11
#500000
0!
0"
0-
0.
02
01
#510000
1!
1-
11
03
00
0/
0#
#520000
0!
0-
01
#530000
1!
1-
11
#540000
0!
0-
01
#550000
1!
1-
11
#560000
0!
0-
01
#570000
1!
1-
11
#580000
0!
0-
01
#590000
1!
1-
11
#600000
0!
1"
0-
1.
12
01
#610000
1!
1-
11
13
10
1/
1#
#620000
0!
0-
01
#630000
1!
1-
11
#640000
0!
0-
01
#650000
1!
1-
11
#660000
0!
0-
01
#670000
1!
1-
11
#680000
0!
0-
01
#690000
1!
1-
11
#700000
0!
0-
01
#710000
1!
1-
11
#720000
0!
0-
01
#730000
1!
1-
11
#740000
0!
0-
01
#750000
1!
1-
11
#760000
0!
0-
01
#770000
1!
1-
11
#780000
0!
0-
01
#790000
1!
1-
11
#800000
0!
0-
01
#810000
1!
1-
11
#820000
0!
0-
01
#830000
1!
1-
11
#840000
0!
0"
0-
0.
02
01
#850000
1!
1-
11
03
00
0/
0#
#860000
0!
0-
01
#870000
1!
1-
11
#880000
0!
0-
01
#890000
1!
1-
11
#900000
0!
0-
01
#910000
1!
1-
11
#920000
0!
0-
01
#930000
1!
1-
11
#940000
0!
0-
01
#950000
1!
1-
11
#960000
0!
0-
01
#970000
1!
1-
11
#980000
0!
0-
01
#990000
1!
1-
11
